<?xml version="1.0" encoding="UTF-8"?>
<svg width="42px" height="42px" viewBox="0 0 42 42" version="1.1" xmlns="http://www.w3.org/2000/svg" xmlns:xlink="http://www.w3.org/1999/xlink">
    <!-- Generator: Sketch 55.1 (78136) - https://sketchapp.com -->
    <title>twitter</title>
    <desc>Created with Sketch.</desc>
    <g id="Page-1" stroke="none" stroke-width="1" fill="none" fill-rule="evenodd">
        <g id="9" transform="translate(6.000000, 9.000000)" fill="#FFFFFF" fill-rule="nonzero">
            <path d="M14.078,6.9 C14.0502211,5.3206118 14.6869931,3.80215542 15.833,2.715 C16.9494022,1.59301701 18.474434,0.973833872 20.057,1 C21.6808588,0.947102149 23.2460332,1.60995224 24.338,2.813 C25.6556797,2.52534461 26.9275781,2.05797244 28.118,1.424 C27.70952,2.8074147 26.7842151,3.98051794 25.534,4.7 C26.7025318,4.52805171 27.843547,4.20396841 28.928,3.736 C28.1305488,4.9447881 27.1249665,6.00251167 25.958,6.86 L25.958,7.6 C25.974743,10.3324647 25.3402242,13.0295985 24.107,15.468 C22.7647184,18.0809092 20.7383348,20.2804497 18.244,21.832 C15.5234048,23.5930035 12.3403534,24.5046846 9.1,24.451 C5.87026557,24.4834019 2.70344971,23.5573692 1.81310522e-15,21.79 C0.486640192,21.8455263 0.976220601,21.8712409 1.466,21.867 C4.12425561,21.8987233 6.71222751,21.0133459 8.794,19.36 C7.52260872,19.3586324 6.28984759,18.9228969 5.3,18.125 C4.34322705,17.3761119 3.63695207,16.3538442 3.275,15.194 C3.62256259,15.3109075 3.98861361,15.3631036 4.355,15.348 C4.87552758,15.3415074 5.39371627,15.2771111 5.9,15.156 C3.12705548,14.560052 1.16003723,12.0899793 1.2,9.254 C2.02373031,9.68744909 2.93150552,9.93750517 3.861,9.987 C2.16812555,8.90477561 1.16012513,7.01984134 1.2,5.011 C1.21446306,3.98074395 1.49337897,2.97148159 2.01,2.08 C4.9620871,5.86983743 9.46790668,8.12366595 14.271,8.213 C14.143923,7.78687797 14.0789215,7.34466583 14.078,6.9 Z" id="_9"></path>
        </g>
    </g>
</svg>