<svg xmlns="http://www.w3.org/2000/svg" xmlns:xlink="http://www.w3.org/1999/xlink" width="28" height="28" viewBox="0 0 28 28">
  <defs>
    <clipPath id="clip-path">
      <path id="Path_3232" data-name="Path 3232" d="M16.1-26.268v-22.47A16.762,16.762,0,0,0,8.345-50.5,17.45,17.45,0,0,0,.5-48.761v22.544A18.086,18.086,0,0,0,8.462-24.5,15.627,15.627,0,0,0,16.1-26.268ZM14.367-45.333H2.233v-2.319a16.649,16.649,0,0,1,6.112-1.114,15.8,15.8,0,0,1,6.022,1.125ZM2.234-31.444H14.367V-43.6H2.234Zm12.133,4.112a14.912,14.912,0,0,1-5.905,1.1,17.31,17.31,0,0,1-6.229-1.1v-2.375H14.367Zm-4.993-.744a1.086,1.086,0,0,0-.933-.934,1.084,1.084,0,0,0-1.215,1.215,1.086,1.086,0,0,0,.933.934,1.084,1.084,0,0,0,1.215-1.215ZM10.9-47.917H5.7v1.733h5.2Z" transform="translate(-0.5 50.5)" fill="none" clip-rule="evenodd"/>
    </clipPath>
    <clipPath id="clip-path-2">
      <path id="Path_3231" data-name="Path 3231" d="M-97-60H59v-78H-97Z" transform="translate(97 138)" fill="none"/>
    </clipPath>
  </defs>
  <g id="airtime_bonus" transform="translate(22033 1302)">
    <rect id="Rectangle_7593" data-name="Rectangle 7593" width="28" height="28" transform="translate(-22033 -1302)" fill="none"/>
    <path id="Path_3158" data-name="Path 3158" d="M0,0H24V24H0Z" transform="translate(-22031 -1300)" fill="none"/>
    <g id="Component_8_1" data-name="Component 8 – 1" transform="translate(-22027 -1301)">
      <g id="Component_7_1" data-name="Component 7 – 1" transform="translate(4.281 6.5)">
        <path id="Path_3156" data-name="Path 3156" d="M10.159,8.534c-1.59-.413-2.1-.841-2.1-1.506,0-.764.708-1.3,1.891-1.3,1.247,0,1.709.6,1.751,1.471h1.548A2.792,2.792,0,0,0,11,4.534V3H8.9V4.513A2.734,2.734,0,0,0,6.446,7.042c0,1.618,1.338,2.424,3.292,2.893,1.751.42,2.1,1.037,2.1,1.688,0,.483-.343,1.254-1.891,1.254-1.443,0-2.01-.644-2.087-1.471H6.32A2.935,2.935,0,0,0,8.9,14.089v1.52H11V14.1c1.366-.259,2.452-1.051,2.452-2.487C13.451,9.627,11.749,8.947,10.159,8.534Z" transform="translate(-6.32 -3)"/>
      </g>
      <g id="Group_15671" data-name="Group 15671">
        <g id="Group_15481" data-name="Group 15481" clip-path="url(#clip-path)">
          <g id="Group_15480" data-name="Group 15480" transform="translate(-50.7 -45.5)" clip-path="url(#clip-path-2)">
            <path id="Path_3230" data-name="Path 3230" d="M-4.5-24.3H16.3V-55.5H-4.5Z" transform="translate(52.6 98.4)"/>
          </g>
        </g>
      </g>
    </g>
  </g>
</svg>
