<svg xmlns="http://www.w3.org/2000/svg" width="28" height="28" viewBox="0 0 28 28">
  <g id="baseline-calendar_today-24px_2_" data-name="baseline-calendar_today-24px (2)" transform="translate(2 2)">
    <rect id="Rectangle_7659" data-name="Rectangle 7659" width="28" height="28" transform="translate(-2 -2)" fill="none"/>
    <g id="Component_41_1" data-name="Component 41 – 1" transform="translate(0.2 -1)">
      <path id="Path_3088" data-name="Path 3088" d="M23.273,3.364H22.091V1H19.727V3.364H7.909V1H5.545V3.364H4.364A2.371,2.371,0,0,0,2,5.727V24.636A2.371,2.371,0,0,0,4.364,27H23.273a2.371,2.371,0,0,0,2.364-2.364V5.727A2.371,2.371,0,0,0,23.273,3.364Zm0,21.273H4.364V9.273H23.273Z" transform="translate(-2 -1)"/>
    </g>
    <path id="Path_3089" data-name="Path 3089" d="M0,0H24V24H0Z" fill="none"/>
  </g>
</svg>
