<svg xmlns="http://www.w3.org/2000/svg" width="28" height="28" viewBox="0 0 28 28">
  <g id="borrpw" transform="translate(21923 437)">
    <g id="baseline-account_balance-24px" transform="translate(-21919 -433)">
      <path id="Path_3223" data-name="Path 3223" d="M0,0H20V20H0Z" fill="none"/>
      <path id="Path_3224" data-name="Path 3224" d="M3.579,8.286v5.667H5.947V8.286Zm4.737,0v5.667h2.368V8.286ZM2,18H17V15.571H2ZM13.053,8.286v5.667h2.368V8.286ZM9.5,1,2,5.048V6.667H17V5.048Z"/>
    </g>
    <rect id="Rectangle_7634" data-name="Rectangle 7634" width="28" height="28" transform="translate(-21923 -437)" fill="none"/>
  </g>
</svg>
