<svg xmlns="http://www.w3.org/2000/svg" width="28" height="28" viewBox="0 0 28 28">
  <g id="calendar" transform="translate(21995 -274)">
    <rect id="Rectangle_7626" data-name="Rectangle 7626" width="28" height="28" transform="translate(-21995 274)" fill="none"/>
    <g id="baseline-calendar_today-24px_1_" data-name="baseline-calendar_today-24px (1)" transform="translate(-21994 275)">
      <path id="Path_3214" data-name="Path 3214" d="M21.8,3.182H20.7V1H18.5V3.182H7.5V1H5.3V3.182H4.2A2.2,2.2,0,0,0,2,5.364V22.818A2.2,2.2,0,0,0,4.2,25H21.8A2.2,2.2,0,0,0,24,22.818V5.364A2.2,2.2,0,0,0,21.8,3.182Zm0,19.636H4.2V8.636H21.8Z"/>
      <path id="Path_3215" data-name="Path 3215" d="M0,0H26V26H0Z" fill="none"/>
    </g>
  </g>
</svg>
