<svg xmlns="http://www.w3.org/2000/svg" xmlns:xlink="http://www.w3.org/1999/xlink" width="28" height="28" viewBox="0 0 28 28">
  <defs>
    <clipPath id="clip-path">
      <path id="Path_3162" data-name="Path 3162" d="M10.4-44.039A42.258,42.258,0,0,0,0-42.438v22.8a42.23,42.23,0,0,0,10.4,1.6,42.314,42.314,0,0,0,10.4-1.6v-22.8a42.314,42.314,0,0,0-10.4-1.6ZM18.72-21.252c-1.408.339-2.825.609-4.173.8v-7.5a12.192,12.192,0,0,1,2.087,2.237V-28.6a8.506,8.506,0,0,0-3.11-2.443,8.022,8.022,0,0,0-3.13,2.405v2.9a10.471,10.471,0,0,1,2.073-2.192v7.713c-.733.061-1.429.094-2.07.094A37.821,37.821,0,0,1,2.08-21.251V-40.828c1.408-.338,2.825-.609,4.172-.8v7.516a12.187,12.187,0,0,1-2.086-2.236v2.883a8.508,8.508,0,0,0,3.11,2.444,8.022,8.022,0,0,0,3.13-2.405v-2.9a10.458,10.458,0,0,1-2.074,2.191v-7.73c.731-.061,1.425-.093,2.065-.093a37.843,37.843,0,0,1,8.323,1.132Z" transform="translate(0 44.039)" fill="none" clip-rule="evenodd"/>
    </clipPath>
    <clipPath id="clip-path-2">
      <path id="Path_3161" data-name="Path 3161" d="M-20-46.857H158.286V-136H-20Z" transform="translate(20 136)" fill="none"/>
    </clipPath>
  </defs>
  <g id="data" transform="translate(22033 1226)">
    <rect id="Rectangle_7595" data-name="Rectangle 7595" width="28" height="28" transform="translate(-22033 -1226)" fill="none"/>
    <g id="Component_9_2" data-name="Component 9 – 2" transform="translate(-22029.4 -1225)">
      <g id="Group_15450" data-name="Group 15450" clip-path="url(#clip-path)">
        <g id="Group_15449" data-name="Group 15449" transform="translate(-11.886 -54.651)" clip-path="url(#clip-path-2)">
          <path id="Path_3160" data-name="Path 3160" d="M-5-17.1H21.743V-49.039H-5Z" transform="translate(13.914 100.719)"/>
        </g>
      </g>
    </g>
  </g>
</svg>
