<svg xmlns="http://www.w3.org/2000/svg" width="28" height="28" viewBox="0 0 28 28">
  <g id="mtn_store_locator" transform="translate(-322 -1788)">
    <g id="Component_43_1" data-name="Component 43 – 1" transform="translate(323 1790.4)">
      <path id="Path_3311" data-name="Path 3311" d="M27.556,4H4.444V6.889H27.556ZM29,18.444V15.556L27.556,8.333H4.444L3,15.556v2.889H4.444v8.667H18.889V18.444h5.778v8.667h2.889V18.444ZM16,24.222H7.333V18.444H16Z" transform="translate(-3 -4)"/>
    </g>
    <rect id="Rectangle_7662" data-name="Rectangle 7662" width="28" height="28" transform="translate(322 1788)" fill="none"/>
  </g>
</svg>
