<svg xmlns="http://www.w3.org/2000/svg" width="28" height="28" viewBox="0 0 28 28">
  <g id="other_plan" transform="translate(2 2)">
    <rect id="Rectangle_7657" data-name="Rectangle 7657" width="28" height="28" transform="translate(-2 -2)" fill="none"/>
    <path id="Path_3254" data-name="Path 3254" d="M0,0H24V24H0Z" fill="none"/>
    <g id="_24px" data-name="24px" transform="translate(-2 -2)">
      <path id="Path_3263" data-name="Path 3263" d="M0,0H28V28H0Z" fill="none"/>
      <path id="Path_3264" data-name="Path 3264" d="M7.25,10a3.25,3.25,0,1,0,3.25,3.25A3.26,3.26,0,0,0,7.25,10Zm19.5,0A3.25,3.25,0,1,0,30,13.25,3.26,3.26,0,0,0,26.75,10ZM17,10a3.25,3.25,0,1,0,3.25,3.25A3.26,3.26,0,0,0,17,10Z" transform="translate(-3 0.667)"/>
    </g>
  </g>
</svg>
