<svg xmlns="http://www.w3.org/2000/svg" xmlns:xlink="http://www.w3.org/1999/xlink" width="28" height="28" viewBox="0 0 28 28">
  <defs>
    <clipPath id="clip-path">
      <path id="Path_3039" data-name="Path 3039" d="M0-24H15.6V-50H0Z" transform="translate(0 50)"/>
    </clipPath>
  </defs>
  <g id="phone_number" transform="translate(22033 1527)">
    <rect id="Rectangle_7585" data-name="Rectangle 7585" width="28" height="28" transform="translate(-22033 -1527)" fill="none"/>
    <g id="_3" data-name="3" transform="translate(-22027 -1526)" clip-path="url(#clip-path)">
      <g id="Group_15187" data-name="Group 15187" transform="translate(0 0)">
        <path id="Path_3038" data-name="Path 3038" d="M-14.4-22.368v-22.47A16.762,16.762,0,0,0-22.155-46.6,17.45,17.45,0,0,0-30-44.862v22.544A18.086,18.086,0,0,0-22.038-20.6,15.627,15.627,0,0,0-14.4-22.368m-1.733-19.066H-28.267v-2.319a16.649,16.649,0,0,1,6.112-1.114,15.8,15.8,0,0,1,6.022,1.125Zm0,13.889H-28.266V-39.7h12.133Zm0,4.112a14.912,14.912,0,0,1-5.905,1.1,17.31,17.31,0,0,1-6.229-1.1v-2.375h12.134Zm-4.993-.744a1.086,1.086,0,0,0-.933-.934A1.084,1.084,0,0,0-23.274-23.9a1.086,1.086,0,0,0,.933.934,1.084,1.084,0,0,0,1.215-1.215M-19.6-44.018h-5.2v1.733h5.2Z" transform="translate(30 46.601)"/>
      </g>
    </g>
  </g>
</svg>
