<svg xmlns="http://www.w3.org/2000/svg" width="28" height="28" viewBox="0 0 28 28">
  <g id="refer" transform="translate(22033 851)">
    <rect id="Rectangle_7602" data-name="Rectangle 7602" width="28" height="28" transform="translate(-22033 -851)" fill="none"/>
    <g id="Component_18_1" data-name="Component 18 – 1" transform="translate(-22030.5 -850)">
      <path id="Path_3175" data-name="Path 3175" d="M22.054,20.378a3.646,3.646,0,0,0-2.49,1.005l-9.057-5.417a4.384,4.384,0,0,0,.114-.914,4.384,4.384,0,0,0-.114-.914l8.955-5.364a3.74,3.74,0,0,0,2.591,1.057,3.859,3.859,0,0,0,3.811-3.916,3.812,3.812,0,1,0-7.621,0,4.384,4.384,0,0,0,.114.914L9.4,12.194a3.74,3.74,0,0,0-2.591-1.057,3.917,3.917,0,0,0,0,7.831A3.74,3.74,0,0,0,9.4,17.911l9.044,5.43a3.7,3.7,0,1,0,3.607-2.963Z" transform="translate(-3 -2)"/>
    </g>
  </g>
</svg>
