<svg xmlns="http://www.w3.org/2000/svg" width="1366" height="150.821" viewBox="0 0 1366 150.821">
  <path id="Path_2319" data-name="Path 2319" d="M1366,132.517c-129.243,10.847-386.63,18.3-682.9,18.3-296.47,0-553.857-7.457-683.1-18.3V0C129.243,10.847,386.63,18.3,683.1,18.3c296.27,0,553.557-7.457,682.9-18.3Z" fill="#1D1D1D"/>
</svg>
